^D:\USERS\CLOVIS\DRIVE\3AS1\C++\DUGUE_MEIRA\DUGUE_MEIRA\UTILS.CPP
/c /ID:\USERS\CLOVIS\DRIVE\3AS1\C++\DUGUE_MEIRA\SFML\X64\INCLUDE /ZI /JMC /nologo /W3 /WX- /diagnostics:classic /sdl /Od /D _MBCS /Gm- /EHsc /RTC1 /MDd /GS /fp:precise /permissive- /Zc:wchar_t /Zc:forScope /Zc:inline /Fo"X64\DEBUG\\" /Fd"X64\DEBUG\VC141.PDB" /Gd /TP /FC D:\USERS\CLOVIS\DRIVE\3AS1\C++\DUGUE_MEIRA\DUGUE_MEIRA\UTILS.CPP
^D:\USERS\CLOVIS\DRIVE\3AS1\C++\DUGUE_MEIRA\DUGUE_MEIRA\NETWORK.CPP
/c /ID:\USERS\CLOVIS\DRIVE\3AS1\C++\DUGUE_MEIRA\SFML\X64\INCLUDE /ZI /JMC /nologo /W3 /WX- /diagnostics:classic /sdl /Od /D _MBCS /Gm- /EHsc /RTC1 /MDd /GS /fp:precise /permissive- /Zc:wchar_t /Zc:forScope /Zc:inline /Fo"X64\DEBUG\\" /Fd"X64\DEBUG\VC141.PDB" /Gd /TP /FC D:\USERS\CLOVIS\DRIVE\3AS1\C++\DUGUE_MEIRA\DUGUE_MEIRA\NETWORK.CPP
^D:\USERS\CLOVIS\DRIVE\3AS1\C++\DUGUE_MEIRA\DUGUE_MEIRA\MELEE.CPP
/c /ID:\USERS\CLOVIS\DRIVE\3AS1\C++\DUGUE_MEIRA\SFML\X64\INCLUDE /ZI /JMC /nologo /W3 /WX- /diagnostics:classic /sdl /Od /D _MBCS /Gm- /EHsc /RTC1 /MDd /GS /fp:precise /permissive- /Zc:wchar_t /Zc:forScope /Zc:inline /Fo"X64\DEBUG\\" /Fd"X64\DEBUG\VC141.PDB" /Gd /TP /FC D:\USERS\CLOVIS\DRIVE\3AS1\C++\DUGUE_MEIRA\DUGUE_MEIRA\MELEE.CPP
^D:\USERS\CLOVIS\DRIVE\3AS1\C++\DUGUE_MEIRA\DUGUE_MEIRA\RANGED.CPP
/c /ID:\USERS\CLOVIS\DRIVE\3AS1\C++\DUGUE_MEIRA\SFML\X64\INCLUDE /ZI /JMC /nologo /W3 /WX- /diagnostics:classic /sdl /Od /D _MBCS /Gm- /EHsc /RTC1 /MDd /GS /fp:precise /permissive- /Zc:wchar_t /Zc:forScope /Zc:inline /Fo"X64\DEBUG\\" /Fd"X64\DEBUG\VC141.PDB" /Gd /TP /FC D:\USERS\CLOVIS\DRIVE\3AS1\C++\DUGUE_MEIRA\DUGUE_MEIRA\RANGED.CPP
^D:\USERS\CLOVIS\DRIVE\3AS1\C++\DUGUE_MEIRA\DUGUE_MEIRA\WEAPON.CPP
/c /ID:\USERS\CLOVIS\DRIVE\3AS1\C++\DUGUE_MEIRA\SFML\X64\INCLUDE /ZI /JMC /nologo /W3 /WX- /diagnostics:classic /sdl /Od /D _MBCS /Gm- /EHsc /RTC1 /MDd /GS /fp:precise /permissive- /Zc:wchar_t /Zc:forScope /Zc:inline /Fo"X64\DEBUG\\" /Fd"X64\DEBUG\VC141.PDB" /Gd /TP /FC D:\USERS\CLOVIS\DRIVE\3AS1\C++\DUGUE_MEIRA\DUGUE_MEIRA\WEAPON.CPP
^D:\USERS\CLOVIS\DRIVE\3AS1\C++\DUGUE_MEIRA\DUGUE_MEIRA\ARCHER.CPP
/c /ID:\USERS\CLOVIS\DRIVE\3AS1\C++\DUGUE_MEIRA\SFML\X64\INCLUDE /ZI /JMC /nologo /W3 /WX- /diagnostics:classic /sdl /Od /D _MBCS /Gm- /EHsc /RTC1 /MDd /GS /fp:precise /permissive- /Zc:wchar_t /Zc:forScope /Zc:inline /Fo"X64\DEBUG\\" /Fd"X64\DEBUG\VC141.PDB" /Gd /TP /FC D:\USERS\CLOVIS\DRIVE\3AS1\C++\DUGUE_MEIRA\DUGUE_MEIRA\ARCHER.CPP
^D:\USERS\CLOVIS\DRIVE\3AS1\C++\DUGUE_MEIRA\DUGUE_MEIRA\BAG.CPP
/c /ID:\USERS\CLOVIS\DRIVE\3AS1\C++\DUGUE_MEIRA\SFML\X64\INCLUDE /ZI /JMC /nologo /W3 /WX- /diagnostics:classic /sdl /Od /D _MBCS /Gm- /EHsc /RTC1 /MDd /GS /fp:precise /permissive- /Zc:wchar_t /Zc:forScope /Zc:inline /Fo"X64\DEBUG\\" /Fd"X64\DEBUG\VC141.PDB" /Gd /TP /FC D:\USERS\CLOVIS\DRIVE\3AS1\C++\DUGUE_MEIRA\DUGUE_MEIRA\BAG.CPP
^D:\USERS\CLOVIS\DRIVE\3AS1\C++\DUGUE_MEIRA\DUGUE_MEIRA\BOW.CPP
/c /ID:\USERS\CLOVIS\DRIVE\3AS1\C++\DUGUE_MEIRA\SFML\X64\INCLUDE /ZI /JMC /nologo /W3 /WX- /diagnostics:classic /sdl /Od /D _MBCS /Gm- /EHsc /RTC1 /MDd /GS /fp:precise /permissive- /Zc:wchar_t /Zc:forScope /Zc:inline /Fo"X64\DEBUG\\" /Fd"X64\DEBUG\VC141.PDB" /Gd /TP /FC D:\USERS\CLOVIS\DRIVE\3AS1\C++\DUGUE_MEIRA\DUGUE_MEIRA\BOW.CPP
^D:\USERS\CLOVIS\DRIVE\3AS1\C++\DUGUE_MEIRA\DUGUE_MEIRA\DAGGER.CPP
/c /ID:\USERS\CLOVIS\DRIVE\3AS1\C++\DUGUE_MEIRA\SFML\X64\INCLUDE /ZI /JMC /nologo /W3 /WX- /diagnostics:classic /sdl /Od /D _MBCS /Gm- /EHsc /RTC1 /MDd /GS /fp:precise /permissive- /Zc:wchar_t /Zc:forScope /Zc:inline /Fo"X64\DEBUG\\" /Fd"X64\DEBUG\VC141.PDB" /Gd /TP /FC D:\USERS\CLOVIS\DRIVE\3AS1\C++\DUGUE_MEIRA\DUGUE_MEIRA\DAGGER.CPP
^D:\USERS\CLOVIS\DRIVE\3AS1\C++\DUGUE_MEIRA\DUGUE_MEIRA\GAMEINIT.CPP
/c /ID:\USERS\CLOVIS\DRIVE\3AS1\C++\DUGUE_MEIRA\SFML\X64\INCLUDE /ZI /JMC /nologo /W3 /WX- /diagnostics:classic /sdl /Od /D _MBCS /Gm- /EHsc /RTC1 /MDd /GS /fp:precise /permissive- /Zc:wchar_t /Zc:forScope /Zc:inline /Fo"X64\DEBUG\\" /Fd"X64\DEBUG\VC141.PDB" /Gd /TP /FC D:\USERS\CLOVIS\DRIVE\3AS1\C++\DUGUE_MEIRA\DUGUE_MEIRA\GAMEINIT.CPP
^D:\USERS\CLOVIS\DRIVE\3AS1\C++\DUGUE_MEIRA\DUGUE_MEIRA\GAMEPLAY.CPP
/c /ID:\USERS\CLOVIS\DRIVE\3AS1\C++\DUGUE_MEIRA\SFML\X64\INCLUDE /ZI /JMC /nologo /W3 /WX- /diagnostics:classic /sdl /Od /D _MBCS /Gm- /EHsc /RTC1 /MDd /GS /fp:precise /permissive- /Zc:wchar_t /Zc:forScope /Zc:inline /Fo"X64\DEBUG\\" /Fd"X64\DEBUG\VC141.PDB" /Gd /TP /FC D:\USERS\CLOVIS\DRIVE\3AS1\C++\DUGUE_MEIRA\DUGUE_MEIRA\GAMEPLAY.CPP
^D:\USERS\CLOVIS\DRIVE\3AS1\C++\DUGUE_MEIRA\DUGUE_MEIRA\PLAYER.CPP
/c /ID:\USERS\CLOVIS\DRIVE\3AS1\C++\DUGUE_MEIRA\SFML\X64\INCLUDE /ZI /JMC /nologo /W3 /WX- /diagnostics:classic /sdl /Od /D _MBCS /Gm- /EHsc /RTC1 /MDd /GS /fp:precise /permissive- /Zc:wchar_t /Zc:forScope /Zc:inline /Fo"X64\DEBUG\\" /Fd"X64\DEBUG\VC141.PDB" /Gd /TP /FC D:\USERS\CLOVIS\DRIVE\3AS1\C++\DUGUE_MEIRA\DUGUE_MEIRA\PLAYER.CPP
^D:\USERS\CLOVIS\DRIVE\3AS1\C++\DUGUE_MEIRA\DUGUE_MEIRA\SKILL.CPP
/c /ID:\USERS\CLOVIS\DRIVE\3AS1\C++\DUGUE_MEIRA\SFML\X64\INCLUDE /ZI /JMC /nologo /W3 /WX- /diagnostics:classic /sdl /Od /D _MBCS /Gm- /EHsc /RTC1 /MDd /GS /fp:precise /permissive- /Zc:wchar_t /Zc:forScope /Zc:inline /Fo"X64\DEBUG\\" /Fd"X64\DEBUG\VC141.PDB" /Gd /TP /FC D:\USERS\CLOVIS\DRIVE\3AS1\C++\DUGUE_MEIRA\DUGUE_MEIRA\SKILL.CPP
^D:\USERS\CLOVIS\DRIVE\3AS1\C++\DUGUE_MEIRA\DUGUE_MEIRA\STAFF.CPP
/c /ID:\USERS\CLOVIS\DRIVE\3AS1\C++\DUGUE_MEIRA\SFML\X64\INCLUDE /ZI /JMC /nologo /W3 /WX- /diagnostics:classic /sdl /Od /D _MBCS /Gm- /EHsc /RTC1 /MDd /GS /fp:precise /permissive- /Zc:wchar_t /Zc:forScope /Zc:inline /Fo"X64\DEBUG\\" /Fd"X64\DEBUG\VC141.PDB" /Gd /TP /FC D:\USERS\CLOVIS\DRIVE\3AS1\C++\DUGUE_MEIRA\DUGUE_MEIRA\STAFF.CPP
^D:\USERS\CLOVIS\DRIVE\3AS1\C++\DUGUE_MEIRA\DUGUE_MEIRA\SWORD.CPP
/c /ID:\USERS\CLOVIS\DRIVE\3AS1\C++\DUGUE_MEIRA\SFML\X64\INCLUDE /ZI /JMC /nologo /W3 /WX- /diagnostics:classic /sdl /Od /D _MBCS /Gm- /EHsc /RTC1 /MDd /GS /fp:precise /permissive- /Zc:wchar_t /Zc:forScope /Zc:inline /Fo"X64\DEBUG\\" /Fd"X64\DEBUG\VC141.PDB" /Gd /TP /FC D:\USERS\CLOVIS\DRIVE\3AS1\C++\DUGUE_MEIRA\DUGUE_MEIRA\SWORD.CPP
^D:\USERS\CLOVIS\DRIVE\3AS1\C++\DUGUE_MEIRA\DUGUE_MEIRA\THIEF.CPP
/c /ID:\USERS\CLOVIS\DRIVE\3AS1\C++\DUGUE_MEIRA\SFML\X64\INCLUDE /ZI /JMC /nologo /W3 /WX- /diagnostics:classic /sdl /Od /D _MBCS /Gm- /EHsc /RTC1 /MDd /GS /fp:precise /permissive- /Zc:wchar_t /Zc:forScope /Zc:inline /Fo"X64\DEBUG\\" /Fd"X64\DEBUG\VC141.PDB" /Gd /TP /FC D:\USERS\CLOVIS\DRIVE\3AS1\C++\DUGUE_MEIRA\DUGUE_MEIRA\THIEF.CPP
^D:\USERS\CLOVIS\DRIVE\3AS1\C++\DUGUE_MEIRA\DUGUE_MEIRA\WARRIOR.CPP
/c /ID:\USERS\CLOVIS\DRIVE\3AS1\C++\DUGUE_MEIRA\SFML\X64\INCLUDE /ZI /JMC /nologo /W3 /WX- /diagnostics:classic /sdl /Od /D _MBCS /Gm- /EHsc /RTC1 /MDd /GS /fp:precise /permissive- /Zc:wchar_t /Zc:forScope /Zc:inline /Fo"X64\DEBUG\\" /Fd"X64\DEBUG\VC141.PDB" /Gd /TP /FC D:\USERS\CLOVIS\DRIVE\3AS1\C++\DUGUE_MEIRA\DUGUE_MEIRA\WARRIOR.CPP
^D:\USERS\CLOVIS\DRIVE\3AS1\C++\DUGUE_MEIRA\DUGUE_MEIRA\WIZARD.CPP
/c /ID:\USERS\CLOVIS\DRIVE\3AS1\C++\DUGUE_MEIRA\SFML\X64\INCLUDE /ZI /JMC /nologo /W3 /WX- /diagnostics:classic /sdl /Od /D _MBCS /Gm- /EHsc /RTC1 /MDd /GS /fp:precise /permissive- /Zc:wchar_t /Zc:forScope /Zc:inline /Fo"X64\DEBUG\\" /Fd"X64\DEBUG\VC141.PDB" /Gd /TP /FC D:\USERS\CLOVIS\DRIVE\3AS1\C++\DUGUE_MEIRA\DUGUE_MEIRA\WIZARD.CPP
^D:\USERS\CLOVIS\DRIVE\3AS1\C++\DUGUE_MEIRA\DUGUE_MEIRA\MAIN.CPP
/c /ID:\USERS\CLOVIS\DRIVE\3AS1\C++\DUGUE_MEIRA\SFML\X64\INCLUDE /ZI /JMC /nologo /W3 /WX- /diagnostics:classic /sdl /Od /D _MBCS /Gm- /EHsc /RTC1 /MDd /GS /fp:precise /permissive- /Zc:wchar_t /Zc:forScope /Zc:inline /Fo"X64\DEBUG\\" /Fd"X64\DEBUG\VC141.PDB" /Gd /TP /FC D:\USERS\CLOVIS\DRIVE\3AS1\C++\DUGUE_MEIRA\DUGUE_MEIRA\MAIN.CPP
^D:\RAPHAËL\DOCUMENTS\VISUAL STUDIO\AZURE\DUGUE_MEIRA\DUGUE_MEIRA\MELEE.CPP
/c /I..\SFML\INCLUDE /ZI /JMC /nologo /W3 /WX- /diagnostics:classic /sdl /Od /D _MBCS /Gm- /EHsc /RTC1 /MDd /GS /fp:precise /permissive- /Zc:wchar_t /Zc:forScope /Zc:inline /Fo"X64\DEBUG\\" /Fd"X64\DEBUG\VC141.PDB" /Gd /TP /FC D:\RAPHAËL\DOCUMENTS\VISUAL STUDIO\AZURE\DUGUE_MEIRA\DUGUE_MEIRA\MELEE.CPP
^D:\RAPHAËL\DOCUMENTS\VISUAL STUDIO\AZURE\DUGUE_MEIRA\DUGUE_MEIRA\NETWORK.CPP
/c /I..\SFML\INCLUDE /ZI /JMC /nologo /W3 /WX- /diagnostics:classic /sdl /Od /D _MBCS /Gm- /EHsc /RTC1 /MDd /GS /fp:precise /permissive- /Zc:wchar_t /Zc:forScope /Zc:inline /Fo"X64\DEBUG\\" /Fd"X64\DEBUG\VC141.PDB" /Gd /TP /FC D:\RAPHAËL\DOCUMENTS\VISUAL STUDIO\AZURE\DUGUE_MEIRA\DUGUE_MEIRA\NETWORK.CPP
^D:\RAPHAËL\DOCUMENTS\VISUAL STUDIO\AZURE\DUGUE_MEIRA\DUGUE_MEIRA\RANGED.CPP
/c /I..\SFML\INCLUDE /ZI /JMC /nologo /W3 /WX- /diagnostics:classic /sdl /Od /D _MBCS /Gm- /EHsc /RTC1 /MDd /GS /fp:precise /permissive- /Zc:wchar_t /Zc:forScope /Zc:inline /Fo"X64\DEBUG\\" /Fd"X64\DEBUG\VC141.PDB" /Gd /TP /FC D:\RAPHAËL\DOCUMENTS\VISUAL STUDIO\AZURE\DUGUE_MEIRA\DUGUE_MEIRA\RANGED.CPP
^D:\RAPHAËL\DOCUMENTS\VISUAL STUDIO\AZURE\DUGUE_MEIRA\DUGUE_MEIRA\UTILS.CPP
/c /I..\SFML\INCLUDE /ZI /JMC /nologo /W3 /WX- /diagnostics:classic /sdl /Od /D _MBCS /Gm- /EHsc /RTC1 /MDd /GS /fp:precise /permissive- /Zc:wchar_t /Zc:forScope /Zc:inline /Fo"X64\DEBUG\\" /Fd"X64\DEBUG\VC141.PDB" /Gd /TP /FC D:\RAPHAËL\DOCUMENTS\VISUAL STUDIO\AZURE\DUGUE_MEIRA\DUGUE_MEIRA\UTILS.CPP
^D:\RAPHAËL\DOCUMENTS\VISUAL STUDIO\AZURE\DUGUE_MEIRA\DUGUE_MEIRA\WEAPON.CPP
/c /I..\SFML\INCLUDE /ZI /JMC /nologo /W3 /WX- /diagnostics:classic /sdl /Od /D _MBCS /Gm- /EHsc /RTC1 /MDd /GS /fp:precise /permissive- /Zc:wchar_t /Zc:forScope /Zc:inline /Fo"X64\DEBUG\\" /Fd"X64\DEBUG\VC141.PDB" /Gd /TP /FC D:\RAPHAËL\DOCUMENTS\VISUAL STUDIO\AZURE\DUGUE_MEIRA\DUGUE_MEIRA\WEAPON.CPP
^D:\RAPHAËL\DOCUMENTS\VISUAL STUDIO\AZURE\DUGUE_MEIRA\DUGUE_MEIRA\ARCHER.CPP
/c /I..\SFML\INCLUDE /ZI /JMC /nologo /W3 /WX- /diagnostics:classic /sdl /Od /D _MBCS /Gm- /EHsc /RTC1 /MDd /GS /fp:precise /permissive- /Zc:wchar_t /Zc:forScope /Zc:inline /Fo"X64\DEBUG\\" /Fd"X64\DEBUG\VC141.PDB" /Gd /TP /FC D:\RAPHAËL\DOCUMENTS\VISUAL STUDIO\AZURE\DUGUE_MEIRA\DUGUE_MEIRA\ARCHER.CPP
^D:\RAPHAËL\DOCUMENTS\VISUAL STUDIO\AZURE\DUGUE_MEIRA\DUGUE_MEIRA\BAG.CPP
/c /I..\SFML\INCLUDE /ZI /JMC /nologo /W3 /WX- /diagnostics:classic /sdl /Od /D _MBCS /Gm- /EHsc /RTC1 /MDd /GS /fp:precise /permissive- /Zc:wchar_t /Zc:forScope /Zc:inline /Fo"X64\DEBUG\\" /Fd"X64\DEBUG\VC141.PDB" /Gd /TP /FC D:\RAPHAËL\DOCUMENTS\VISUAL STUDIO\AZURE\DUGUE_MEIRA\DUGUE_MEIRA\BAG.CPP
^D:\RAPHAËL\DOCUMENTS\VISUAL STUDIO\AZURE\DUGUE_MEIRA\DUGUE_MEIRA\BOW.CPP
/c /I..\SFML\INCLUDE /ZI /JMC /nologo /W3 /WX- /diagnostics:classic /sdl /Od /D _MBCS /Gm- /EHsc /RTC1 /MDd /GS /fp:precise /permissive- /Zc:wchar_t /Zc:forScope /Zc:inline /Fo"X64\DEBUG\\" /Fd"X64\DEBUG\VC141.PDB" /Gd /TP /FC D:\RAPHAËL\DOCUMENTS\VISUAL STUDIO\AZURE\DUGUE_MEIRA\DUGUE_MEIRA\BOW.CPP
^D:\RAPHAËL\DOCUMENTS\VISUAL STUDIO\AZURE\DUGUE_MEIRA\DUGUE_MEIRA\DAGGER.CPP
/c /I..\SFML\INCLUDE /ZI /JMC /nologo /W3 /WX- /diagnostics:classic /sdl /Od /D _MBCS /Gm- /EHsc /RTC1 /MDd /GS /fp:precise /permissive- /Zc:wchar_t /Zc:forScope /Zc:inline /Fo"X64\DEBUG\\" /Fd"X64\DEBUG\VC141.PDB" /Gd /TP /FC D:\RAPHAËL\DOCUMENTS\VISUAL STUDIO\AZURE\DUGUE_MEIRA\DUGUE_MEIRA\DAGGER.CPP
^D:\RAPHAËL\DOCUMENTS\VISUAL STUDIO\AZURE\DUGUE_MEIRA\DUGUE_MEIRA\GAMEINIT.CPP
/c /I..\SFML\INCLUDE /ZI /JMC /nologo /W3 /WX- /diagnostics:classic /sdl /Od /D _MBCS /Gm- /EHsc /RTC1 /MDd /GS /fp:precise /permissive- /Zc:wchar_t /Zc:forScope /Zc:inline /Fo"X64\DEBUG\\" /Fd"X64\DEBUG\VC141.PDB" /Gd /TP /FC D:\RAPHAËL\DOCUMENTS\VISUAL STUDIO\AZURE\DUGUE_MEIRA\DUGUE_MEIRA\GAMEINIT.CPP
^D:\RAPHAËL\DOCUMENTS\VISUAL STUDIO\AZURE\DUGUE_MEIRA\DUGUE_MEIRA\GAMEPLAY.CPP
/c /I..\SFML\INCLUDE /ZI /JMC /nologo /W3 /WX- /diagnostics:classic /sdl /Od /D _MBCS /Gm- /EHsc /RTC1 /MDd /GS /fp:precise /permissive- /Zc:wchar_t /Zc:forScope /Zc:inline /Fo"X64\DEBUG\\" /Fd"X64\DEBUG\VC141.PDB" /Gd /TP /FC D:\RAPHAËL\DOCUMENTS\VISUAL STUDIO\AZURE\DUGUE_MEIRA\DUGUE_MEIRA\GAMEPLAY.CPP
^D:\RAPHAËL\DOCUMENTS\VISUAL STUDIO\AZURE\DUGUE_MEIRA\DUGUE_MEIRA\PLAYER.CPP
/c /I..\SFML\INCLUDE /ZI /JMC /nologo /W3 /WX- /diagnostics:classic /sdl /Od /D _MBCS /Gm- /EHsc /RTC1 /MDd /GS /fp:precise /permissive- /Zc:wchar_t /Zc:forScope /Zc:inline /Fo"X64\DEBUG\\" /Fd"X64\DEBUG\VC141.PDB" /Gd /TP /FC D:\RAPHAËL\DOCUMENTS\VISUAL STUDIO\AZURE\DUGUE_MEIRA\DUGUE_MEIRA\PLAYER.CPP
^D:\RAPHAËL\DOCUMENTS\VISUAL STUDIO\AZURE\DUGUE_MEIRA\DUGUE_MEIRA\SKILL.CPP
/c /I..\SFML\INCLUDE /ZI /JMC /nologo /W3 /WX- /diagnostics:classic /sdl /Od /D _MBCS /Gm- /EHsc /RTC1 /MDd /GS /fp:precise /permissive- /Zc:wchar_t /Zc:forScope /Zc:inline /Fo"X64\DEBUG\\" /Fd"X64\DEBUG\VC141.PDB" /Gd /TP /FC D:\RAPHAËL\DOCUMENTS\VISUAL STUDIO\AZURE\DUGUE_MEIRA\DUGUE_MEIRA\SKILL.CPP
^D:\RAPHAËL\DOCUMENTS\VISUAL STUDIO\AZURE\DUGUE_MEIRA\DUGUE_MEIRA\STAFF.CPP
/c /I..\SFML\INCLUDE /ZI /JMC /nologo /W3 /WX- /diagnostics:classic /sdl /Od /D _MBCS /Gm- /EHsc /RTC1 /MDd /GS /fp:precise /permissive- /Zc:wchar_t /Zc:forScope /Zc:inline /Fo"X64\DEBUG\\" /Fd"X64\DEBUG\VC141.PDB" /Gd /TP /FC D:\RAPHAËL\DOCUMENTS\VISUAL STUDIO\AZURE\DUGUE_MEIRA\DUGUE_MEIRA\STAFF.CPP
^D:\RAPHAËL\DOCUMENTS\VISUAL STUDIO\AZURE\DUGUE_MEIRA\DUGUE_MEIRA\SWORD.CPP
/c /I..\SFML\INCLUDE /ZI /JMC /nologo /W3 /WX- /diagnostics:classic /sdl /Od /D _MBCS /Gm- /EHsc /RTC1 /MDd /GS /fp:precise /permissive- /Zc:wchar_t /Zc:forScope /Zc:inline /Fo"X64\DEBUG\\" /Fd"X64\DEBUG\VC141.PDB" /Gd /TP /FC D:\RAPHAËL\DOCUMENTS\VISUAL STUDIO\AZURE\DUGUE_MEIRA\DUGUE_MEIRA\SWORD.CPP
^D:\RAPHAËL\DOCUMENTS\VISUAL STUDIO\AZURE\DUGUE_MEIRA\DUGUE_MEIRA\THIEF.CPP
/c /I..\SFML\INCLUDE /ZI /JMC /nologo /W3 /WX- /diagnostics:classic /sdl /Od /D _MBCS /Gm- /EHsc /RTC1 /MDd /GS /fp:precise /permissive- /Zc:wchar_t /Zc:forScope /Zc:inline /Fo"X64\DEBUG\\" /Fd"X64\DEBUG\VC141.PDB" /Gd /TP /FC D:\RAPHAËL\DOCUMENTS\VISUAL STUDIO\AZURE\DUGUE_MEIRA\DUGUE_MEIRA\THIEF.CPP
^D:\RAPHAËL\DOCUMENTS\VISUAL STUDIO\AZURE\DUGUE_MEIRA\DUGUE_MEIRA\WARRIOR.CPP
/c /I..\SFML\INCLUDE /ZI /JMC /nologo /W3 /WX- /diagnostics:classic /sdl /Od /D _MBCS /Gm- /EHsc /RTC1 /MDd /GS /fp:precise /permissive- /Zc:wchar_t /Zc:forScope /Zc:inline /Fo"X64\DEBUG\\" /Fd"X64\DEBUG\VC141.PDB" /Gd /TP /FC D:\RAPHAËL\DOCUMENTS\VISUAL STUDIO\AZURE\DUGUE_MEIRA\DUGUE_MEIRA\WARRIOR.CPP
^D:\RAPHAËL\DOCUMENTS\VISUAL STUDIO\AZURE\DUGUE_MEIRA\DUGUE_MEIRA\MAIN.CPP
/c /I..\SFML\INCLUDE /ZI /JMC /nologo /W3 /WX- /diagnostics:classic /sdl /Od /D _MBCS /Gm- /EHsc /RTC1 /MDd /GS /fp:precise /permissive- /Zc:wchar_t /Zc:forScope /Zc:inline /Fo"X64\DEBUG\\" /Fd"X64\DEBUG\VC141.PDB" /Gd /TP /FC D:\RAPHAËL\DOCUMENTS\VISUAL STUDIO\AZURE\DUGUE_MEIRA\DUGUE_MEIRA\MAIN.CPP
^D:\RAPHAËL\DOCUMENTS\VISUAL STUDIO\AZURE\DUGUE_MEIRA\DUGUE_MEIRA\WIZARD.CPP
/c /I..\SFML\INCLUDE /ZI /JMC /nologo /W3 /WX- /diagnostics:classic /sdl /Od /D _MBCS /Gm- /EHsc /RTC1 /MDd /GS /fp:precise /permissive- /Zc:wchar_t /Zc:forScope /Zc:inline /Fo"X64\DEBUG\\" /Fd"X64\DEBUG\VC141.PDB" /Gd /TP /FC D:\RAPHAËL\DOCUMENTS\VISUAL STUDIO\AZURE\DUGUE_MEIRA\DUGUE_MEIRA\WIZARD.CPP
^C:\USERS\CLOVIS\DESKTOP\DUGUE_MEIRA\DUGUE_MEIRA\ARCHER.CPP
/c /I..\SFML\INCLUDE /ZI /JMC /nologo /W3 /WX- /diagnostics:classic /sdl /Od /D _MBCS /Gm- /EHsc /RTC1 /MDd /GS /fp:precise /permissive- /Zc:wchar_t /Zc:forScope /Zc:inline /Fo"X64\DEBUG\\" /Fd"X64\DEBUG\VC141.PDB" /Gd /TP /FC C:\USERS\CLOVIS\DESKTOP\DUGUE_MEIRA\DUGUE_MEIRA\ARCHER.CPP
^C:\USERS\CLOVIS\DESKTOP\DUGUE_MEIRA\DUGUE_MEIRA\BAG.CPP
/c /I..\SFML\INCLUDE /ZI /JMC /nologo /W3 /WX- /diagnostics:classic /sdl /Od /D _MBCS /Gm- /EHsc /RTC1 /MDd /GS /fp:precise /permissive- /Zc:wchar_t /Zc:forScope /Zc:inline /Fo"X64\DEBUG\\" /Fd"X64\DEBUG\VC141.PDB" /Gd /TP /FC C:\USERS\CLOVIS\DESKTOP\DUGUE_MEIRA\DUGUE_MEIRA\BAG.CPP
^C:\USERS\CLOVIS\DESKTOP\DUGUE_MEIRA\DUGUE_MEIRA\BOW.CPP
/c /I..\SFML\INCLUDE /ZI /JMC /nologo /W3 /WX- /diagnostics:classic /sdl /Od /D _MBCS /Gm- /EHsc /RTC1 /MDd /GS /fp:precise /permissive- /Zc:wchar_t /Zc:forScope /Zc:inline /Fo"X64\DEBUG\\" /Fd"X64\DEBUG\VC141.PDB" /Gd /TP /FC C:\USERS\CLOVIS\DESKTOP\DUGUE_MEIRA\DUGUE_MEIRA\BOW.CPP
^C:\USERS\CLOVIS\DESKTOP\DUGUE_MEIRA\DUGUE_MEIRA\DAGGER.CPP
/c /I..\SFML\INCLUDE /ZI /JMC /nologo /W3 /WX- /diagnostics:classic /sdl /Od /D _MBCS /Gm- /EHsc /RTC1 /MDd /GS /fp:precise /permissive- /Zc:wchar_t /Zc:forScope /Zc:inline /Fo"X64\DEBUG\\" /Fd"X64\DEBUG\VC141.PDB" /Gd /TP /FC C:\USERS\CLOVIS\DESKTOP\DUGUE_MEIRA\DUGUE_MEIRA\DAGGER.CPP
^C:\USERS\CLOVIS\DESKTOP\DUGUE_MEIRA\DUGUE_MEIRA\GAMEINIT.CPP
/c /I..\SFML\INCLUDE /ZI /JMC /nologo /W3 /WX- /diagnostics:classic /sdl /Od /D _MBCS /Gm- /EHsc /RTC1 /MDd /GS /fp:precise /permissive- /Zc:wchar_t /Zc:forScope /Zc:inline /Fo"X64\DEBUG\\" /Fd"X64\DEBUG\VC141.PDB" /Gd /TP /FC C:\USERS\CLOVIS\DESKTOP\DUGUE_MEIRA\DUGUE_MEIRA\GAMEINIT.CPP
^C:\USERS\CLOVIS\DESKTOP\DUGUE_MEIRA\DUGUE_MEIRA\GAMEPLAY.CPP
/c /I..\SFML\INCLUDE /ZI /JMC /nologo /W3 /WX- /diagnostics:classic /sdl /Od /D _MBCS /Gm- /EHsc /RTC1 /MDd /GS /fp:precise /permissive- /Zc:wchar_t /Zc:forScope /Zc:inline /Fo"X64\DEBUG\\" /Fd"X64\DEBUG\VC141.PDB" /Gd /TP /FC C:\USERS\CLOVIS\DESKTOP\DUGUE_MEIRA\DUGUE_MEIRA\GAMEPLAY.CPP
^C:\USERS\CLOVIS\DESKTOP\DUGUE_MEIRA\DUGUE_MEIRA\MELEE.CPP
/c /I..\SFML\INCLUDE /ZI /JMC /nologo /W3 /WX- /diagnostics:classic /sdl /Od /D _MBCS /Gm- /EHsc /RTC1 /MDd /GS /fp:precise /permissive- /Zc:wchar_t /Zc:forScope /Zc:inline /Fo"X64\DEBUG\\" /Fd"X64\DEBUG\VC141.PDB" /Gd /TP /FC C:\USERS\CLOVIS\DESKTOP\DUGUE_MEIRA\DUGUE_MEIRA\MELEE.CPP
^C:\USERS\CLOVIS\DESKTOP\DUGUE_MEIRA\DUGUE_MEIRA\NETWORK.CPP
/c /I..\SFML\INCLUDE /ZI /JMC /nologo /W3 /WX- /diagnostics:classic /sdl /Od /D _MBCS /Gm- /EHsc /RTC1 /MDd /GS /fp:precise /permissive- /Zc:wchar_t /Zc:forScope /Zc:inline /Fo"X64\DEBUG\\" /Fd"X64\DEBUG\VC141.PDB" /Gd /TP /FC C:\USERS\CLOVIS\DESKTOP\DUGUE_MEIRA\DUGUE_MEIRA\NETWORK.CPP
^C:\USERS\CLOVIS\DESKTOP\DUGUE_MEIRA\DUGUE_MEIRA\PLAYER.CPP
/c /I..\SFML\INCLUDE /ZI /JMC /nologo /W3 /WX- /diagnostics:classic /sdl /Od /D _MBCS /Gm- /EHsc /RTC1 /MDd /GS /fp:precise /permissive- /Zc:wchar_t /Zc:forScope /Zc:inline /Fo"X64\DEBUG\\" /Fd"X64\DEBUG\VC141.PDB" /Gd /TP /FC C:\USERS\CLOVIS\DESKTOP\DUGUE_MEIRA\DUGUE_MEIRA\PLAYER.CPP
^C:\USERS\CLOVIS\DESKTOP\DUGUE_MEIRA\DUGUE_MEIRA\RANGED.CPP
/c /I..\SFML\INCLUDE /ZI /JMC /nologo /W3 /WX- /diagnostics:classic /sdl /Od /D _MBCS /Gm- /EHsc /RTC1 /MDd /GS /fp:precise /permissive- /Zc:wchar_t /Zc:forScope /Zc:inline /Fo"X64\DEBUG\\" /Fd"X64\DEBUG\VC141.PDB" /Gd /TP /FC C:\USERS\CLOVIS\DESKTOP\DUGUE_MEIRA\DUGUE_MEIRA\RANGED.CPP
^C:\USERS\CLOVIS\DESKTOP\DUGUE_MEIRA\DUGUE_MEIRA\SKILL.CPP
/c /I..\SFML\INCLUDE /ZI /JMC /nologo /W3 /WX- /diagnostics:classic /sdl /Od /D _MBCS /Gm- /EHsc /RTC1 /MDd /GS /fp:precise /permissive- /Zc:wchar_t /Zc:forScope /Zc:inline /Fo"X64\DEBUG\\" /Fd"X64\DEBUG\VC141.PDB" /Gd /TP /FC C:\USERS\CLOVIS\DESKTOP\DUGUE_MEIRA\DUGUE_MEIRA\SKILL.CPP
^C:\USERS\CLOVIS\DESKTOP\DUGUE_MEIRA\DUGUE_MEIRA\STAFF.CPP
/c /I..\SFML\INCLUDE /ZI /JMC /nologo /W3 /WX- /diagnostics:classic /sdl /Od /D _MBCS /Gm- /EHsc /RTC1 /MDd /GS /fp:precise /permissive- /Zc:wchar_t /Zc:forScope /Zc:inline /Fo"X64\DEBUG\\" /Fd"X64\DEBUG\VC141.PDB" /Gd /TP /FC C:\USERS\CLOVIS\DESKTOP\DUGUE_MEIRA\DUGUE_MEIRA\STAFF.CPP
^C:\USERS\CLOVIS\DESKTOP\DUGUE_MEIRA\DUGUE_MEIRA\SWORD.CPP
/c /I..\SFML\INCLUDE /ZI /JMC /nologo /W3 /WX- /diagnostics:classic /sdl /Od /D _MBCS /Gm- /EHsc /RTC1 /MDd /GS /fp:precise /permissive- /Zc:wchar_t /Zc:forScope /Zc:inline /Fo"X64\DEBUG\\" /Fd"X64\DEBUG\VC141.PDB" /Gd /TP /FC C:\USERS\CLOVIS\DESKTOP\DUGUE_MEIRA\DUGUE_MEIRA\SWORD.CPP
^C:\USERS\CLOVIS\DESKTOP\DUGUE_MEIRA\DUGUE_MEIRA\THIEF.CPP
/c /I..\SFML\INCLUDE /ZI /JMC /nologo /W3 /WX- /diagnostics:classic /sdl /Od /D _MBCS /Gm- /EHsc /RTC1 /MDd /GS /fp:precise /permissive- /Zc:wchar_t /Zc:forScope /Zc:inline /Fo"X64\DEBUG\\" /Fd"X64\DEBUG\VC141.PDB" /Gd /TP /FC C:\USERS\CLOVIS\DESKTOP\DUGUE_MEIRA\DUGUE_MEIRA\THIEF.CPP
^C:\USERS\CLOVIS\DESKTOP\DUGUE_MEIRA\DUGUE_MEIRA\UTILS.CPP
/c /I..\SFML\INCLUDE /ZI /JMC /nologo /W3 /WX- /diagnostics:classic /sdl /Od /D _MBCS /Gm- /EHsc /RTC1 /MDd /GS /fp:precise /permissive- /Zc:wchar_t /Zc:forScope /Zc:inline /Fo"X64\DEBUG\\" /Fd"X64\DEBUG\VC141.PDB" /Gd /TP /FC C:\USERS\CLOVIS\DESKTOP\DUGUE_MEIRA\DUGUE_MEIRA\UTILS.CPP
^C:\USERS\CLOVIS\DESKTOP\DUGUE_MEIRA\DUGUE_MEIRA\WARRIOR.CPP
/c /I..\SFML\INCLUDE /ZI /JMC /nologo /W3 /WX- /diagnostics:classic /sdl /Od /D _MBCS /Gm- /EHsc /RTC1 /MDd /GS /fp:precise /permissive- /Zc:wchar_t /Zc:forScope /Zc:inline /Fo"X64\DEBUG\\" /Fd"X64\DEBUG\VC141.PDB" /Gd /TP /FC C:\USERS\CLOVIS\DESKTOP\DUGUE_MEIRA\DUGUE_MEIRA\WARRIOR.CPP
^C:\USERS\CLOVIS\DESKTOP\DUGUE_MEIRA\DUGUE_MEIRA\WEAPON.CPP
/c /I..\SFML\INCLUDE /ZI /JMC /nologo /W3 /WX- /diagnostics:classic /sdl /Od /D _MBCS /Gm- /EHsc /RTC1 /MDd /GS /fp:precise /permissive- /Zc:wchar_t /Zc:forScope /Zc:inline /Fo"X64\DEBUG\\" /Fd"X64\DEBUG\VC141.PDB" /Gd /TP /FC C:\USERS\CLOVIS\DESKTOP\DUGUE_MEIRA\DUGUE_MEIRA\WEAPON.CPP
^C:\USERS\CLOVIS\DESKTOP\DUGUE_MEIRA\DUGUE_MEIRA\MAIN.CPP
/c /I..\SFML\INCLUDE /ZI /JMC /nologo /W3 /WX- /diagnostics:classic /sdl /Od /D _MBCS /Gm- /EHsc /RTC1 /MDd /GS /fp:precise /permissive- /Zc:wchar_t /Zc:forScope /Zc:inline /Fo"X64\DEBUG\\" /Fd"X64\DEBUG\VC141.PDB" /Gd /TP /FC C:\USERS\CLOVIS\DESKTOP\DUGUE_MEIRA\DUGUE_MEIRA\MAIN.CPP
^C:\USERS\CLOVIS\DESKTOP\DUGUE_MEIRA\DUGUE_MEIRA\WIZARD.CPP
/c /I..\SFML\INCLUDE /ZI /JMC /nologo /W3 /WX- /diagnostics:classic /sdl /Od /D _MBCS /Gm- /EHsc /RTC1 /MDd /GS /fp:precise /permissive- /Zc:wchar_t /Zc:forScope /Zc:inline /Fo"X64\DEBUG\\" /Fd"X64\DEBUG\VC141.PDB" /Gd /TP /FC C:\USERS\CLOVIS\DESKTOP\DUGUE_MEIRA\DUGUE_MEIRA\WIZARD.CPP
